transcript
# Reading pref.tcl
# OpenFile {C:/Users/ajaym/Documents/TCES 330/Project/Control.sv}
do runrtlControl.do
# 
# Get rid of current work lib
# if {[file exists rtl_work]} {
# 	vdel -lib rtl_work -all
# }
# 
# Create work library and map it to 'work'
# vlib rtl_work
# vmap work rtl_work
# Model Technology ModelSim - Intel FPGA Edition vmap 2020.1 Lib Mapping Utility 2020.02 Feb 28 2020
# vmap work rtl_work 
# Modifying modelsim.ini
# 
# Compile Verilog
#     All Verilog files that are part of this design should have
#     their own "vlog" line below.
# vlog -work work +acc "./Control.sv"
# Model Technology ModelSim - Intel FPGA Edition vlog 2020.1 Compiler 2020.02 Feb 28 2020
# Start time: 18:28:59 on Jun 03,2021
# vlog -reportprogress 300 -work work "+acc" ./Control.sv 
# -- Compiling module Control
# -- Compiling module Control_tb
# 
# Top level modules:
# 	Control_tb
# End time: 18:28:59 on Jun 03,2021, Elapsed time: 0:00:00
# Errors: 0, Warnings: 0
# vlog -work work +acc "./InstructionMemory.v"
# Model Technology ModelSim - Intel FPGA Edition vlog 2020.1 Compiler 2020.02 Feb 28 2020
# Start time: 18:28:59 on Jun 03,2021
# vlog -reportprogress 300 -work work "+acc" ./InstructionMemory.v 
# -- Compiling module InstructionMemory
# 
# Top level modules:
# 	InstructionMemory
# End time: 18:28:59 on Jun 03,2021, Elapsed time: 0:00:00
# Errors: 0, Warnings: 0
# vlog -work work +acc "./IR.sv"
# Model Technology ModelSim - Intel FPGA Edition vlog 2020.1 Compiler 2020.02 Feb 28 2020
# Start time: 18:28:59 on Jun 03,2021
# vlog -reportprogress 300 -work work "+acc" ./IR.sv 
# -- Compiling module IR
# 
# Top level modules:
# 	IR
# End time: 18:28:59 on Jun 03,2021, Elapsed time: 0:00:00
# Errors: 0, Warnings: 0
# vlog -work work +acc "./PC.sv"
# Model Technology ModelSim - Intel FPGA Edition vlog 2020.1 Compiler 2020.02 Feb 28 2020
# Start time: 18:28:59 on Jun 03,2021
# vlog -reportprogress 300 -work work "+acc" ./PC.sv 
# -- Compiling module PC
# -- Compiling module PC_tb
# 
# Top level modules:
# 	PC_tb
# End time: 18:29:00 on Jun 03,2021, Elapsed time: 0:00:01
# Errors: 0, Warnings: 0
# vlog -work work +acc "./FSM.sv"
# Model Technology ModelSim - Intel FPGA Edition vlog 2020.1 Compiler 2020.02 Feb 28 2020
# Start time: 18:29:00 on Jun 03,2021
# vlog -reportprogress 300 -work work "+acc" ./FSM.sv 
# -- Compiling module FSM
# -- Compiling module FSM_tb
# 
# Top level modules:
# 	FSM_tb
# End time: 18:29:00 on Jun 03,2021, Elapsed time: 0:00:00
# Errors: 0, Warnings: 0
# 
# Call vsim to invoke simulator
#     Make sure the last item on the line is the name of the
#     testbench module you want to execute.
# vsim -t 1ps -L altera_ver -L lpm_ver -L sgate_ver -L altera_mf_ver -L altera_lnsim_ver -L cycloneive_ver -L rtl_work -L work -voptargs="+acc" -fsmdebug  Control_tb
# vsim -t 1ps -L altera_ver -L lpm_ver -L sgate_ver -L altera_mf_ver -L altera_lnsim_ver -L cycloneive_ver -L rtl_work -L work -voptargs=""+acc"" -fsmdebug Control_tb 
# Start time: 18:29:00 on Jun 03,2021
# Loading sv_std.std
# Loading work.Control_tb
# Loading work.Control
# Loading work.InstructionMemory
# Loading altera_mf_ver.altsyncram
# Loading work.PC
# Loading work.IR
# Loading work.FSM
# Loading altera_mf_ver.altsyncram_body
# Loading altera_mf_ver.ALTERA_DEVICE_FAMILIES
# Loading altera_mf_ver.ALTERA_MF_MEMORY_INITIALIZATION
# 
# Source the wave do file
#     This should be the file that sets up the signal window for
#     the module you are testing.
# do Control_wave.do
# onerror {resume}
# quietly WaveActivateNextPane {} 0
# add wave -noupdate /Control_tb/Clk
# add wave -noupdate /Control_tb/Rst
# add wave -noupdate /Control_tb/PC_Out
# add wave -noupdate /Control_tb/IR_Out
# add wave -noupdate /Control_tb/OutState
# add wave -noupdate /Control_tb/NextState
# add wave -noupdate /Control_tb/D_Addr
# add wave -noupdate /Control_tb/D_Wr
# add wave -noupdate /Control_tb/RF_s
# add wave -noupdate /Control_tb/RF_W_en
# add wave -noupdate /Control_tb/RF_Ra_Addr
# add wave -noupdate /Control_tb/RF_Rb_Addr
# add wave -noupdate /Control_tb/RF_W_Addr
# add wave -noupdate /Control_tb/Alu_s0
# TreeUpdate [SetDefaultTree]
# WaveRestoreCursors {{Cursor 1} {0 ps} 0}
# quietly wave cursor active 0
# configure wave -namecolwidth 150
# configure wave -valuecolwidth 100
# configure wave -justifyvalue left
# configure wave -signalnamewidth 0
# configure wave -snapdistance 10
# configure wave -datasetprefix 0
# configure wave -rowmargin 4
# configure wave -childrowmargin 2
# configure wave -gridoffset 0
# configure wave -gridperiod 1
# configure wave -griddelta 40
# configure wave -timeline 0
# configure wave -timelineunits ps
# update
# WaveRestoreZoom {0 ps} {1 ns}
# 
# Set the window types
# view wave
# .main_pane.wave.interior.cs.body.pw.wf
# view structure
# .main_pane.structure.interior.cs.body.struct
# view signals
# .main_pane.objects.interior.cs.body.tree
# 
# Run the simulation
# run -all
#                    0  Reset =1   PC_out=  0   IR_out=    x   OutState= 0   NextState= 1   D_Addr=  0   D_Wr=0  RF_s=0   RF_W_Addr= 0   RF_W_en=0   RF_Ra_Addr= 0   RF_Rb_Addrn= 0   ALU_so=0  
#                   10  Reset =1   PC_out=  0   IR_out=    x   OutState= 1   NextState= 2   D_Addr=  0   D_Wr=0  RF_s=0   RF_W_Addr= 0   RF_W_en=0   RF_Ra_Addr= 0   RF_Rb_Addrn= 0   ALU_so=0  
#                   30  Reset =1   PC_out=  1   IR_out=    0   OutState= 2   NextState= 3   D_Addr=  0   D_Wr=0  RF_s=0   RF_W_Addr= 0   RF_W_en=0   RF_Ra_Addr= 0   RF_Rb_Addrn= 0   ALU_so=0  
#                   50  Reset =1   PC_out=  1   IR_out=    0   OutState= 3   NextState= 1   D_Addr=  0   D_Wr=0  RF_s=0   RF_W_Addr= 0   RF_W_en=0   RF_Ra_Addr= 0   RF_Rb_Addrn= 0   ALU_so=0  
#                   70  Reset =1   PC_out=  1   IR_out=    0   OutState= 1   NextState= 2   D_Addr=  0   D_Wr=0  RF_s=0   RF_W_Addr= 0   RF_W_en=0   RF_Ra_Addr= 0   RF_Rb_Addrn= 0   ALU_so=0  
#                   90  Reset =1   PC_out=  2   IR_out= 8369   OutState= 2   NextState= 4   D_Addr=  0   D_Wr=0  RF_s=0   RF_W_Addr= 0   RF_W_en=0   RF_Ra_Addr= 0   RF_Rb_Addrn= 0   ALU_so=0  
#                  110  Reset =1   PC_out=  2   IR_out= 8369   OutState= 4   NextState= 5   D_Addr= 11   D_Wr=0  RF_s=1   RF_W_Addr= 1   RF_W_en=0   RF_Ra_Addr= 0   RF_Rb_Addrn= 0   ALU_so=0  
#                  130  Reset =1   PC_out=  2   IR_out= 8369   OutState= 5   NextState= 1   D_Addr= 11   D_Wr=0  RF_s=1   RF_W_Addr= 1   RF_W_en=1   RF_Ra_Addr= 0   RF_Rb_Addrn= 0   ALU_so=0  
#                  150  Reset =1   PC_out=  2   IR_out= 8369   OutState= 1   NextState= 2   D_Addr=  0   D_Wr=0  RF_s=0   RF_W_Addr= 0   RF_W_en=0   RF_Ra_Addr= 0   RF_Rb_Addrn= 0   ALU_so=0  
#                  170  Reset =1   PC_out=  3   IR_out= 8626   OutState= 2   NextState= 4   D_Addr=  0   D_Wr=0  RF_s=0   RF_W_Addr= 0   RF_W_en=0   RF_Ra_Addr= 0   RF_Rb_Addrn= 0   ALU_so=0  
#                  190  Reset =1   PC_out=  3   IR_out= 8626   OutState= 4   NextState= 5   D_Addr= 27   D_Wr=0  RF_s=1   RF_W_Addr= 2   RF_W_en=0   RF_Ra_Addr= 0   RF_Rb_Addrn= 0   ALU_so=0  
#                  210  Reset =1   PC_out=  3   IR_out= 8626   OutState= 5   NextState= 1   D_Addr= 27   D_Wr=0  RF_s=1   RF_W_Addr= 2   RF_W_en=1   RF_Ra_Addr= 0   RF_Rb_Addrn= 0   ALU_so=0  
#                  230  Reset =1   PC_out=  3   IR_out= 8626   OutState= 1   NextState= 2   D_Addr=  0   D_Wr=0  RF_s=0   RF_W_Addr= 0   RF_W_en=0   RF_Ra_Addr= 0   RF_Rb_Addrn= 0   ALU_so=0  
#                  250  Reset =1   PC_out=  4   IR_out=16675   OutState= 2   NextState= 8   D_Addr=  0   D_Wr=0  RF_s=0   RF_W_Addr= 0   RF_W_en=0   RF_Ra_Addr= 0   RF_Rb_Addrn= 0   ALU_so=0  
#                  270  Reset =1   PC_out=  4   IR_out=16675   OutState= 8   NextState= 1   D_Addr=  0   D_Wr=0  RF_s=0   RF_W_Addr= 3   RF_W_en=1   RF_Ra_Addr= 1   RF_Rb_Addrn= 2   ALU_so=2  
#                  290  Reset =1   PC_out=  4   IR_out=16675   OutState= 1   NextState= 2   D_Addr=  0   D_Wr=0  RF_s=0   RF_W_Addr= 0   RF_W_en=0   RF_Ra_Addr= 0   RF_Rb_Addrn= 0   ALU_so=0  
#                  310  Reset =1   PC_out=  5   IR_out= 8292   OutState= 2   NextState= 4   D_Addr=  0   D_Wr=0  RF_s=0   RF_W_Addr= 0   RF_W_en=0   RF_Ra_Addr= 0   RF_Rb_Addrn= 0   ALU_so=0  
#                  330  Reset =1   PC_out=  5   IR_out= 8292   OutState= 4   NextState= 5   D_Addr=  6   D_Wr=0  RF_s=1   RF_W_Addr= 4   RF_W_en=0   RF_Ra_Addr= 0   RF_Rb_Addrn= 0   ALU_so=0  
#                  350  Reset =1   PC_out=  5   IR_out= 8292   OutState= 5   NextState= 1   D_Addr=  6   D_Wr=0  RF_s=1   RF_W_Addr= 4   RF_W_en=1   RF_Ra_Addr= 0   RF_Rb_Addrn= 0   ALU_so=0  
#                  370  Reset =1   PC_out=  5   IR_out= 8292   OutState= 1   NextState= 2   D_Addr=  0   D_Wr=0  RF_s=0   RF_W_Addr= 0   RF_W_en=0   RF_Ra_Addr= 0   RF_Rb_Addrn= 0   ALU_so=0  
#                  390  Reset =1   PC_out=  6   IR_out=13125   OutState= 2   NextState= 7   D_Addr=  0   D_Wr=0  RF_s=0   RF_W_Addr= 0   RF_W_en=0   RF_Ra_Addr= 0   RF_Rb_Addrn= 0   ALU_so=0  
#                  410  Reset =1   PC_out=  6   IR_out=13125   OutState= 7   NextState= 1   D_Addr=  0   D_Wr=0  RF_s=0   RF_W_Addr= 5   RF_W_en=1   RF_Ra_Addr= 3   RF_Rb_Addrn= 4   ALU_so=1  
#                  430  Reset =1   PC_out=  6   IR_out=13125   OutState= 1   NextState= 2   D_Addr=  0   D_Wr=0  RF_s=0   RF_W_Addr= 0   RF_W_en=0   RF_Ra_Addr= 0   RF_Rb_Addrn= 0   ALU_so=0  
#                  450  Reset =1   PC_out=  7   IR_out=10406   OutState= 2   NextState= 4   D_Addr=  0   D_Wr=0  RF_s=0   RF_W_Addr= 0   RF_W_en=0   RF_Ra_Addr= 0   RF_Rb_Addrn= 0   ALU_so=0  
#                  470  Reset =1   PC_out=  7   IR_out=10406   OutState= 4   NextState= 5   D_Addr=138   D_Wr=0  RF_s=1   RF_W_Addr= 6   RF_W_en=0   RF_Ra_Addr= 0   RF_Rb_Addrn= 0   ALU_so=0  
#                  490  Reset =1   PC_out=  7   IR_out=10406   OutState= 5   NextState= 1   D_Addr=138   D_Wr=0  RF_s=1   RF_W_Addr= 6   RF_W_en=1   RF_Ra_Addr= 0   RF_Rb_Addrn= 0   ALU_so=0  
#                  510  Reset =1   PC_out=  7   IR_out=10406   OutState= 1   NextState= 2   D_Addr=  0   D_Wr=0  RF_s=0   RF_W_Addr= 0   RF_W_en=0   RF_Ra_Addr= 0   RF_Rb_Addrn= 0   ALU_so=0  
#                  530  Reset =1   PC_out=  8   IR_out=17760   OutState= 2   NextState= 8   D_Addr=  0   D_Wr=0  RF_s=0   RF_W_Addr= 0   RF_W_en=0   RF_Ra_Addr= 0   RF_Rb_Addrn= 0   ALU_so=0  
#                  550  Reset =1   PC_out=  8   IR_out=17760   OutState= 8   NextState= 1   D_Addr=  0   D_Wr=0  RF_s=0   RF_W_Addr= 0   RF_W_en=1   RF_Ra_Addr= 5   RF_Rb_Addrn= 6   ALU_so=2  
#                  570  Reset =1   PC_out=  8   IR_out=17760   OutState= 1   NextState= 2   D_Addr=  0   D_Wr=0  RF_s=0   RF_W_Addr= 0   RF_W_en=0   RF_Ra_Addr= 0   RF_Rb_Addrn= 0   ALU_so=0  
#                  590  Reset =1   PC_out=  9   IR_out= 4301   OutState= 2   NextState= 6   D_Addr=  0   D_Wr=0  RF_s=0   RF_W_Addr= 0   RF_W_en=0   RF_Ra_Addr= 0   RF_Rb_Addrn= 0   ALU_so=0  
#                  610  Reset =1   PC_out=  9   IR_out= 4301   OutState= 6   NextState= 1   D_Addr=205   D_Wr=1  RF_s=0   RF_W_Addr= 0   RF_W_en=0   RF_Ra_Addr= 0   RF_Rb_Addrn= 0   ALU_so=0  
#                  630  Reset =1   PC_out=  9   IR_out= 4301   OutState= 1   NextState= 2   D_Addr=  0   D_Wr=0  RF_s=0   RF_W_Addr= 0   RF_W_en=0   RF_Ra_Addr= 0   RF_Rb_Addrn= 0   ALU_so=0  
#                  650  Reset =1   PC_out= 10   IR_out=20480   OutState= 2   NextState= 9   D_Addr=  0   D_Wr=0  RF_s=0   RF_W_Addr= 0   RF_W_en=0   RF_Ra_Addr= 0   RF_Rb_Addrn= 0   ALU_so=0  
#                  670  Reset =1   PC_out= 10   IR_out=20480   OutState= 9   NextState= 9   D_Addr=  0   D_Wr=0  RF_s=0   RF_W_Addr= 0   RF_W_en=0   RF_Ra_Addr= 0   RF_Rb_Addrn= 0   ALU_so=0  
#                  810  Reset =0   PC_out= 10   IR_out=20480   OutState= 0   NextState= 1   D_Addr=  0   D_Wr=0  RF_s=0   RF_W_Addr= 0   RF_W_en=0   RF_Ra_Addr= 0   RF_Rb_Addrn= 0   ALU_so=0  
#                  830  Reset =0   PC_out=  0   IR_out=20480   OutState= 0   NextState= 1   D_Addr=  0   D_Wr=0  RF_s=0   RF_W_Addr= 0   RF_W_en=0   RF_Ra_Addr= 0   RF_Rb_Addrn= 0   ALU_so=0  
# ** Note: $stop    : ./Control.sv(70)
#    Time: 850 ns  Iteration: 0  Instance: /Control_tb
# Break in Module Control_tb at ./Control.sv line 70
# 
# View the entire wave display
# wave zoomfull
# 0 ps
# 892500 ps
# 
# End
do runProcessor(rtl).do
# 
# Get rid of current work lib
# if {[file exists rtl_work]} {
# 	vdel -lib rtl_work -all
# }
# 
# Create work library and map it to 'work'
# vlib rtl_work
# vmap work rtl_work
# Model Technology ModelSim - Intel FPGA Edition vmap 2020.1 Lib Mapping Utility 2020.02 Feb 28 2020
# vmap work rtl_work 
# Modifying modelsim.ini
# 
# Compile Verilog
#     All Verilog files that are part of this design should have
#     their own "vlog" line below.
# vlog -work work +acc "./testProcessor.sv"
# Model Technology ModelSim - Intel FPGA Edition vlog 2020.1 Compiler 2020.02 Feb 28 2020
# Start time: 18:29:23 on Jun 03,2021
# vlog -reportprogress 300 -work work "+acc" ./testProcessor.sv 
# -- Compiling module testProcessor
# 
# Top level modules:
# 	testProcessor
# End time: 18:29:23 on Jun 03,2021, Elapsed time: 0:00:00
# Errors: 0, Warnings: 0
# vlog -work work +acc "./Processor.sv"
# Model Technology ModelSim - Intel FPGA Edition vlog 2020.1 Compiler 2020.02 Feb 28 2020
# Start time: 18:29:23 on Jun 03,2021
# vlog -reportprogress 300 -work work "+acc" ./Processor.sv 
# -- Compiling module Processor
# 
# Top level modules:
# 	Processor
# End time: 18:29:23 on Jun 03,2021, Elapsed time: 0:00:00
# Errors: 0, Warnings: 0
# vlog -work work +acc "./Control.sv"
# Model Technology ModelSim - Intel FPGA Edition vlog 2020.1 Compiler 2020.02 Feb 28 2020
# Start time: 18:29:23 on Jun 03,2021
# vlog -reportprogress 300 -work work "+acc" ./Control.sv 
# -- Compiling module Control
# -- Compiling module Control_tb
# 
# Top level modules:
# 	Control_tb
# End time: 18:29:23 on Jun 03,2021, Elapsed time: 0:00:00
# Errors: 0, Warnings: 0
# vlog -work work +acc "./IR.sv"
# Model Technology ModelSim - Intel FPGA Edition vlog 2020.1 Compiler 2020.02 Feb 28 2020
# Start time: 18:29:23 on Jun 03,2021
# vlog -reportprogress 300 -work work "+acc" ./IR.sv 
# -- Compiling module IR
# 
# Top level modules:
# 	IR
# End time: 18:29:23 on Jun 03,2021, Elapsed time: 0:00:00
# Errors: 0, Warnings: 0
# vlog -work work +acc "./FSM.sv"
# Model Technology ModelSim - Intel FPGA Edition vlog 2020.1 Compiler 2020.02 Feb 28 2020
# Start time: 18:29:23 on Jun 03,2021
# vlog -reportprogress 300 -work work "+acc" ./FSM.sv 
# -- Compiling module FSM
# -- Compiling module FSM_tb
# 
# Top level modules:
# 	FSM_tb
# End time: 18:29:23 on Jun 03,2021, Elapsed time: 0:00:00
# Errors: 0, Warnings: 0
# vlog -work work +acc "./PC.sv"
# Model Technology ModelSim - Intel FPGA Edition vlog 2020.1 Compiler 2020.02 Feb 28 2020
# Start time: 18:29:23 on Jun 03,2021
# vlog -reportprogress 300 -work work "+acc" ./PC.sv 
# -- Compiling module PC
# -- Compiling module PC_tb
# 
# Top level modules:
# 	PC_tb
# End time: 18:29:23 on Jun 03,2021, Elapsed time: 0:00:00
# Errors: 0, Warnings: 0
# vlog -work work +acc "./ALU.sv"
# Model Technology ModelSim - Intel FPGA Edition vlog 2020.1 Compiler 2020.02 Feb 28 2020
# Start time: 18:29:23 on Jun 03,2021
# vlog -reportprogress 300 -work work "+acc" ./ALU.sv 
# -- Compiling module ALU
# -- Compiling module ALU_tb
# 
# Top level modules:
# 	ALU_tb
# End time: 18:29:23 on Jun 03,2021, Elapsed time: 0:00:00
# Errors: 0, Warnings: 0
# vlog -work work +acc "./DataMemory.v"
# Model Technology ModelSim - Intel FPGA Edition vlog 2020.1 Compiler 2020.02 Feb 28 2020
# Start time: 18:29:23 on Jun 03,2021
# vlog -reportprogress 300 -work work "+acc" ./DataMemory.v 
# -- Compiling module DataMemory
# 
# Top level modules:
# 	DataMemory
# End time: 18:29:23 on Jun 03,2021, Elapsed time: 0:00:00
# Errors: 0, Warnings: 0
# vlog -work work +acc "./InstructionMemory.v"
# Model Technology ModelSim - Intel FPGA Edition vlog 2020.1 Compiler 2020.02 Feb 28 2020
# Start time: 18:29:23 on Jun 03,2021
# vlog -reportprogress 300 -work work "+acc" ./InstructionMemory.v 
# -- Compiling module InstructionMemory
# 
# Top level modules:
# 	InstructionMemory
# End time: 18:29:23 on Jun 03,2021, Elapsed time: 0:00:00
# Errors: 0, Warnings: 0
# vlog -work work +acc "./MUX_2_to_1.sv"
# Model Technology ModelSim - Intel FPGA Edition vlog 2020.1 Compiler 2020.02 Feb 28 2020
# Start time: 18:29:23 on Jun 03,2021
# vlog -reportprogress 300 -work work "+acc" ./MUX_2_to_1.sv 
# -- Compiling module Mux_2_to_1
# -- Compiling module Mux_2_to_1_tb
# 
# Top level modules:
# 	Mux_2_to_1_tb
# End time: 18:29:23 on Jun 03,2021, Elapsed time: 0:00:00
# Errors: 0, Warnings: 0
# vlog -work work +acc "./regfile16x16a.sv"
# Model Technology ModelSim - Intel FPGA Edition vlog 2020.1 Compiler 2020.02 Feb 28 2020
# Start time: 18:29:23 on Jun 03,2021
# vlog -reportprogress 300 -work work "+acc" ./regfile16x16a.sv 
# -- Compiling module regfile16x16a
# -- Compiling module regfile16x16a_tb
# 
# Top level modules:
# 	regfile16x16a_tb
# End time: 18:29:24 on Jun 03,2021, Elapsed time: 0:00:01
# Errors: 0, Warnings: 0
# vlog -work work +acc "./Datapath.sv"
# Model Technology ModelSim - Intel FPGA Edition vlog 2020.1 Compiler 2020.02 Feb 28 2020
# Start time: 18:29:24 on Jun 03,2021
# vlog -reportprogress 300 -work work "+acc" ./Datapath.sv 
# -- Compiling module Datapath
# -- Compiling module Datapath_tb
# 
# Top level modules:
# 	Datapath_tb
# End time: 18:29:24 on Jun 03,2021, Elapsed time: 0:00:00
# Errors: 0, Warnings: 0
# 
# Call vsim to invoke simulator
#     Make sure the last item on the line is the name of the
#     testbench module you want to execute.
# vsim -t 1ps -L altera_ver -L lpm_ver -L sgate_ver -L altera_mf_ver -L altera_lnsim_ver -L cycloneive_ver -L rtl_work -L work -voptargs="+acc" -fsmdebug  testProcessor
# End time: 18:29:25 on Jun 03,2021, Elapsed time: 0:00:25
# Errors: 0, Warnings: 0
# vsim -t 1ps -L altera_ver -L lpm_ver -L sgate_ver -L altera_mf_ver -L altera_lnsim_ver -L cycloneive_ver -L rtl_work -L work -voptargs=""+acc"" -fsmdebug testProcessor 
# Start time: 18:29:25 on Jun 03,2021
# Loading sv_std.std
# Loading work.testProcessor
# Loading work.Processor
# Loading work.Control
# Loading work.InstructionMemory
# Loading altera_mf_ver.altsyncram
# Loading work.PC
# Loading work.IR
# Loading work.FSM
# Loading work.Datapath
# Loading work.DataMemory
# Loading work.Mux_2_to_1
# Loading work.regfile16x16a
# Loading work.ALU
# Loading altera_mf_ver.altsyncram_body
# Loading altera_mf_ver.ALTERA_DEVICE_FAMILIES
# Loading altera_mf_ver.ALTERA_MF_MEMORY_INITIALIZATION
# 
# Source the wave do file
#     This should be the file that sets up the signal window for
#     the module you are testing.
# do waveProcessor.do
# onerror {resume}
# quietly WaveActivateNextPane {} 0
# add wave -noupdate /testProcessor/Clk
# add wave -noupdate /testProcessor/Reset
# add wave -noupdate /testProcessor/IR_Out
# add wave -noupdate /testProcessor/PC_Out
# add wave -noupdate /testProcessor/State
# add wave -noupdate /testProcessor/NextState
# add wave -noupdate /testProcessor/ALU_A
# add wave -noupdate /testProcessor/ALU_B
# add wave -noupdate /testProcessor/ALU_Out
# TreeUpdate [SetDefaultTree]
# WaveRestoreCursors {{Cursor 1} {0 ps} 0}
# quietly wave cursor active 0
# configure wave -namecolwidth 150
# configure wave -valuecolwidth 100
# configure wave -justifyvalue left
# configure wave -signalnamewidth 0
# configure wave -snapdistance 10
# configure wave -datasetprefix 0
# configure wave -rowmargin 4
# configure wave -childrowmargin 2
# configure wave -gridoffset 0
# configure wave -gridperiod 1
# configure wave -griddelta 40
# configure wave -timeline 0
# configure wave -timelineunits ps
# update
# WaveRestoreZoom {0 ps} {1 ns}
# 
# Set the window types
# view wave
# .main_pane.wave.interior.cs.body.pw.wf
# view structure
# .main_pane.structure.interior.cs.body.struct
# view signals
# .main_pane.objects.interior.cs.body.tree
# 
# Run the simulation
# run -all
# 
# Begin Simulation.
# Time is 0 : Reset = 0   PC_Out = 00   IR_Out = xxxx  State = 0  ALU A = xxxx  ALU B = xxxx ALU Out = 0000 State= 0 NextState= 1 RF_s=0 WData=    0
# Time is 20000 : Reset = 1   PC_Out = 00   IR_Out = xxxx  State = 0  ALU A = xxxx  ALU B = xxxx ALU Out = 0000 State= 0 NextState= 1 RF_s=0 WData=    0
# Time is 30000 : Reset = 1   PC_Out = 00   IR_Out = xxxx  State = 1  ALU A = xxxx  ALU B = xxxx ALU Out = 0000 State= 1 NextState= 2 RF_s=0 WData=    0
# Time is 50000 : Reset = 1   PC_Out = 01   IR_Out = 0000  State = 2  ALU A = xxxx  ALU B = xxxx ALU Out = 0000 State= 2 NextState= 3 RF_s=0 WData=    0
# Time is 70000 : Reset = 1   PC_Out = 01   IR_Out = 0000  State = 3  ALU A = xxxx  ALU B = xxxx ALU Out = 0000 State= 3 NextState= 1 RF_s=0 WData=    0
# Time is 90000 : Reset = 1   PC_Out = 01   IR_Out = 0000  State = 1  ALU A = xxxx  ALU B = xxxx ALU Out = 0000 State= 1 NextState= 2 RF_s=0 WData=    0
# Time is 110000 : Reset = 1   PC_Out = 02   IR_Out = 20b1  State = 2  ALU A = xxxx  ALU B = xxxx ALU Out = 0000 State= 2 NextState= 4 RF_s=0 WData=    0
# Time is 130000 : Reset = 1   PC_Out = 02   IR_Out = 20b1  State = 4  ALU A = xxxx  ALU B = xxxx ALU Out = 0000 State= 4 NextState= 5 RF_s=1 WData=    0
# Time is 150000 : Reset = 1   PC_Out = 02   IR_Out = 20b1  State = 5  ALU A = xxxx  ALU B = xxxx ALU Out = 0000 State= 5 NextState= 1 RF_s=1 WData=    0
# Time is 170000 : Reset = 1   PC_Out = 02   IR_Out = 20b1  State = 1  ALU A = xxxx  ALU B = xxxx ALU Out = 0000 State= 1 NextState= 2 RF_s=0 WData=    0
# Time is 190000 : Reset = 1   PC_Out = 03   IR_Out = 21b2  State = 2  ALU A = xxxx  ALU B = xxxx ALU Out = 0000 State= 2 NextState= 4 RF_s=0 WData=    0
# Time is 210000 : Reset = 1   PC_Out = 03   IR_Out = 21b2  State = 4  ALU A = xxxx  ALU B = xxxx ALU Out = 0000 State= 4 NextState= 5 RF_s=1 WData=    0
# Time is 230000 : Reset = 1   PC_Out = 03   IR_Out = 21b2  State = 5  ALU A = xxxx  ALU B = xxxx ALU Out = 0000 State= 5 NextState= 1 RF_s=1 WData=    0
# Time is 250000 : Reset = 1   PC_Out = 03   IR_Out = 21b2  State = 1  ALU A = xxxx  ALU B = xxxx ALU Out = 0000 State= 1 NextState= 2 RF_s=0 WData=    0
# Time is 270000 : Reset = 1   PC_Out = 04   IR_Out = 4123  State = 2  ALU A = xxxx  ALU B = xxxx ALU Out = 0000 State= 2 NextState= 8 RF_s=0 WData=    0
# Time is 290000 : Reset = 1   PC_Out = 04   IR_Out = 4123  State = 8  ALU A = 0000  ALU B = 0000 ALU Out = 0000 State= 8 NextState= 1 RF_s=0 WData=    0
# Time is 310000 : Reset = 1   PC_Out = 04   IR_Out = 4123  State = 1  ALU A = xxxx  ALU B = xxxx ALU Out = 0000 State= 1 NextState= 2 RF_s=0 WData=    0
# Time is 330000 : Reset = 1   PC_Out = 05   IR_Out = 2064  State = 2  ALU A = xxxx  ALU B = xxxx ALU Out = 0000 State= 2 NextState= 4 RF_s=0 WData=    0
# Time is 350000 : Reset = 1   PC_Out = 05   IR_Out = 2064  State = 4  ALU A = xxxx  ALU B = xxxx ALU Out = 0000 State= 4 NextState= 5 RF_s=1 WData=    0
# Time is 370000 : Reset = 1   PC_Out = 05   IR_Out = 2064  State = 5  ALU A = xxxx  ALU B = xxxx ALU Out = 0000 State= 5 NextState= 1 RF_s=1 WData=    0
# Time is 390000 : Reset = 1   PC_Out = 05   IR_Out = 2064  State = 1  ALU A = xxxx  ALU B = xxxx ALU Out = 0000 State= 1 NextState= 2 RF_s=0 WData=    0
# Time is 410000 : Reset = 1   PC_Out = 06   IR_Out = 3345  State = 2  ALU A = xxxx  ALU B = xxxx ALU Out = 0000 State= 2 NextState= 7 RF_s=0 WData=    0
# Time is 430000 : Reset = 1   PC_Out = 06   IR_Out = 3345  State = 7  ALU A = 0000  ALU B = 0000 ALU Out = 0000 State= 7 NextState= 1 RF_s=0 WData=    0
# Time is 450000 : Reset = 1   PC_Out = 06   IR_Out = 3345  State = 1  ALU A = xxxx  ALU B = xxxx ALU Out = 0000 State= 1 NextState= 2 RF_s=0 WData=    0
# Time is 470000 : Reset = 1   PC_Out = 07   IR_Out = 28a6  State = 2  ALU A = xxxx  ALU B = xxxx ALU Out = 0000 State= 2 NextState= 4 RF_s=0 WData=    0
# Time is 490000 : Reset = 1   PC_Out = 07   IR_Out = 28a6  State = 4  ALU A = xxxx  ALU B = xxxx ALU Out = 0000 State= 4 NextState= 5 RF_s=1 WData=    0
# Time is 510000 : Reset = 1   PC_Out = 07   IR_Out = 28a6  State = 5  ALU A = xxxx  ALU B = xxxx ALU Out = 0000 State= 5 NextState= 1 RF_s=1 WData=    0
# Time is 530000 : Reset = 1   PC_Out = 07   IR_Out = 28a6  State = 1  ALU A = xxxx  ALU B = xxxx ALU Out = 0000 State= 1 NextState= 2 RF_s=0 WData=    0
# Time is 550000 : Reset = 1   PC_Out = 08   IR_Out = 4560  State = 2  ALU A = xxxx  ALU B = xxxx ALU Out = 0000 State= 2 NextState= 8 RF_s=0 WData=    0
# Time is 570000 : Reset = 1   PC_Out = 08   IR_Out = 4560  State = 8  ALU A = 0000  ALU B = 0000 ALU Out = 0000 State= 8 NextState= 1 RF_s=0 WData=    0
# Time is 590000 : Reset = 1   PC_Out = 08   IR_Out = 4560  State = 1  ALU A = 0000  ALU B = 0000 ALU Out = 0000 State= 1 NextState= 2 RF_s=0 WData=    0
# Time is 610000 : Reset = 1   PC_Out = 09   IR_Out = 10cd  State = 2  ALU A = 0000  ALU B = 0000 ALU Out = 0000 State= 2 NextState= 6 RF_s=0 WData=    0
# Time is 630000 : Reset = 1   PC_Out = 09   IR_Out = 10cd  State = 6  ALU A = 0000  ALU B = 0000 ALU Out = 0000 State= 6 NextState= 1 RF_s=0 WData=    0
# Time is 650000 : Reset = 1   PC_Out = 09   IR_Out = 10cd  State = 1  ALU A = 0000  ALU B = 0000 ALU Out = 0000 State= 1 NextState= 2 RF_s=0 WData=    0
# 
# End of Simulation.
# 
# ** Note: $stop    : ./testProcessor.sv(32)
#    Time: 670 ns  Iteration: 2  Instance: /testProcessor
# Break in Module testProcessor at ./testProcessor.sv line 32
# 
# View the entire wave display
# wave zoomfull
# 0 ps
# 703500 ps
# 
# End
do runProcessor(rtl).do
# 
# Get rid of current work lib
# if {[file exists rtl_work]} {
# 	vdel -lib rtl_work -all
# }
# Error 31: Unable to unlink file "C:/Users/ajaym/Documents/TCES 330/Project/rtl_work/_lib.qdb".
# Error 133: Unable to remove directory "C:/Users/ajaym/Documents/TCES 330/Project/rtl_work".
# 
# Create work library and map it to 'work'
# vlib rtl_work
# vmap work rtl_work
# Model Technology ModelSim - Intel FPGA Edition vmap 2020.1 Lib Mapping Utility 2020.02 Feb 28 2020
